,E_actual,E_simulated,siteID
130,0.419782287058,0.695222655659,ARSLu
129,0.488477813577,0.429334481869,ARVir
128,0.718924063607,0.638973200268,ATNeu
126,0.144846309787,0.866775663446,AUASM
127,0.495740836791,0.590385393141,AUAde
125,0.566528281324,0.911979761235,AUCpr
124,0.350426650839,1.12970622142,AUCum
123,0.998793767268,0.514300591451,AUDaP
122,-0.0114881943674,1.12221944819,AUDaS
121,0.181868658524,0.502938132469,AUDry
120,0.150062892679,0.778743300275,AUEmr
119,0.731204623589,0.639830739867,AUFog
118,0.642399326129,0.247104588737,AUGWW
117,0.786417785066,0.727054511515,AURDF
116,-0.0923284827819,0.453381932379,AURig
115,1.07523844133,0.908228002615,AURob
114,0.609334694235,1.02935206049,AUTum
113,0.328177115451,0.609492070829,AUWhr
112,0.562299785865,0.539680330442,BEBra
111,0.662860214948,0.731889269971,BELon
110,0.650449822627,0.666052808536,BEVie
109,-0.137744886903,1.05353766257,BRSa3
108,0.592498799533,0.587200784311,CANS1
107,0.492926271161,0.692300791354,CANS2
106,0.677039329937,0.930685170841,CANS3
105,0.582500407681,0.65256644906,CANS4
104,0.570813407546,0.577103227073,CANS5
103,0.642448333828,0.766090186898,CANS6
102,0.568209502723,0.633292055032,CANS7
101,0.607829727056,0.876484444667,CAQfo
100,0.780848100255,0.37906325027,CASF1
99,0.855405391856,0.40356191977,CASF2
98,0.630043744697,0.503455126229,CASF3
97,0.68628939322,0.81104008639,CHCha
96,0.892945703717,0.788797934207,CHFru
95,0.822134234016,0.675118287341,CHOe1
94,0.976913212937,0.720048521374,CNCha
93,0.78271301933,0.435785371379,CNCng
92,1.0636177425,0.498299892481,CNDan
91,0.531522328943,0.80840492227,CNDin
90,1.02627022898,0.820625687265,CNDu2
89,0.745922792177,0.605451918048,CNHa2
88,0.677619438215,0.8967535714,CNHaM
87,0.540457947152,0.781461302783,CNQia
86,0.608646837173,0.515901986209,CNSw2
85,0.551472922323,0.921554107362,CZBK1
84,0.351407912369,0.157438226752,CZBK2
83,0.889073603385,0.809060185639,DEAkm
82,0.845287306725,0.807913392762,DEGri
81,0.514323300045,0.495650138068,DEHai
80,0.812106459106,0.654130924003,DEKli
79,0.693812273165,0.708852906323,DELkb
78,0.607293955976,0.735753144535,DEObe
77,0.845776103664,0.596976643031,DERuS
76,0.77019049185,0.661043475694,DESfN
75,0.740731581631,0.955001296039,DESpw
74,0.726244268463,0.718966340524,DETha
73,0.681242545488,0.444274544568,DKNuF
72,0.788263032207,0.578881238708,DKSor
71,0.153276858473,0.620840251343,DKZaH
70,0.441952249651,0.496033598215,ESLgS
69,0.362790195467,0.327258253345,ESLn2
68,0.866164336108,1.14879588811,FIHyy
67,1.058818174,0.723017483478,FIJok
66,0.725316112437,0.562606768011,FRFon
65,0.727516140756,0.641900398,FRGri
64,0.369498580451,0.721972088054,FRPue
63,-0.147084118145,0.558540554266,GFGuy
62,0.655971628173,0.497752225075,ITBCi
61,0.481673895602,0.832146411612,ITCA1
60,0.390428784744,0.416038642288,ITCA2
59,0.523437374084,0.41981536838,ITCA3
58,0.446287206322,0.621254134448,ITCp2
57,0.484389258734,0.570496216536,ITIsp
56,0.919761434085,0.457329227343,ITLa2
55,0.891322795388,0.523316993652,ITLav
54,0.542668290678,0.504521542329,ITNoe
53,0.693004008951,0.402832418869,ITPT1
52,0.727226030988,0.243152033267,ITRen
51,0.353063123733,1.08653977792,ITRo1
50,0.418617182333,0.426723613864,ITRo2
49,0.620589967874,0.644535541373,ITSR2
48,0.400186923456,0.725187015332,ITSRo
47,0.615078021633,0.495329853493,ITTor
46,0.977874546233,0.637702562212,JPMBF
45,0.293987894904,0.883636157297,JPSMF
44,0.876244706617,0.874174195622,NLHor
43,0.778731867851,0.740118609228,NLLoo
42,2.37119112389,0.56904782771,NOAdv
41,0.578207777539,0.656936109539,RUChe
40,0.6197949259,0.560136087726,RUCok
39,0.759040287525,0.604400868459,RUFyo
38,0.800978253637,0.624977995095,RUHa1
37,-0.0228514755709,0.598290351594,SDDem
36,0.530777061092,0.847771432006,USAR1
35,0.715904931655,0.751106788881,USAR2
34,0.511798606168,0.6533446526,USARM
33,0.157065106325,0.615748253951,USBlo
32,0.492853174555,0.782902447898,USHa1
31,0.829921820813,0.431399194418,USLos
27,0.631221446986,0.182838486063,USMMS
30,0.963111510852,0.68097757963,USMe1
29,0.598267505757,0.581420056524,USMe2
28,0.667440741584,0.76445611632,USMe6
26,0.708869330082,0.532248811343,USMyb
22,0.928298916792,0.497518857814,USNR1
25,0.756958246634,0.614622679341,USNe1
24,0.772421029553,0.865684682345,USNe2
23,0.772948584606,0.398640699725,USNe3
21,0.868286126953,0.979968994477,USPFa
20,0.720202957516,0.467467597422,USSRG
19,0.822839590497,0.715971452029,USSRM
18,0.707182037793,0.77422476172,USSyv
17,-0.12482059304,0.748002824531,USTon
16,0.637445923022,0.74341260006,USTw1
15,1.05289657314,0.650155854566,USTw2
14,0.447529705789,0.611856314157,USTw3
13,0.689558083726,0.249139806479,USTwt
12,0.618429821738,0.572532834514,USUMB
11,0.631251022824,0.647075974824,USUMd
10,-0.435639048997,0.870822154357,USVar
9,0.555631111017,0.596023024715,USWCr
8,0.857671509727,1.00872499605,USWhs
7,0.739658405154,0.705782069136,USWi0
6,0.465215472846,0.654297987284,USWi3
5,0.662818272363,0.478147071933,USWi4
4,0.843118887499,0.666418200732,USWi6
3,0.642911363987,0.649423333179,USWi9
2,0.790150480577,0.606666495958,USWkg
1,0.235797975165,0.722059091422,ZAKru
0,0.197482068659,0.641450531495,ZMMon
