E,norm_lnB0,r_sq,site_ID
1.43861655475,109.017711145,1.0,ARSLu
0.910756193974,62.4727743975,0.999999999944,ARVir
1.02845808199,72.850123554,0.999999996685,ATNeu
1.43861655475,109.017711145,1.0,AUCpr
1.43861655475,109.017711145,1.0,AUCum
1.43861655475,108.101420413,1.0,AURig
1.43861655475,108.101420413,1.0,AUTum
1.43861655475,108.101420413,1.0,AUWhr
1.64541065151,133.789452756,1.0,BEBra
1.64541065154,134.61613133,1.0,BELon
1.64541065154,134.61613133,1.0,BEVie
1.15929426449,83.8706335476,0.999999991719,CANS1
1.15924435322,83.8685727016,0.999999993242,CANS2
1.15921793794,83.867478383,0.999999994428,CANS3
1.15924715658,83.8686861332,0.999999991939,CANS4
1.15924212786,83.8684771902,0.999999993586,CANS5
1.15926996199,83.8696230699,0.999999992155,CANS6
1.15927065368,84.2751167647,0.99999999233,CANS7
1.64541065154,135.175747118,1.0,CAQfo
1.2799604291,95.2327474201,0.999999999994,CASF1
1.27996247037,95.232830209,0.999999999991,CASF2
1.27996187026,95.2328062908,0.999999999994,CASF3
1.02848851519,72.8513819133,0.999999996097,CHCha
1.02848771746,72.8513538652,0.999999996198,CHFru
1.0284856975,72.8512845328,0.999999995647,CHOe1
0.943441437363,65.7172525961,0.999999999721,CNCha
1.08217801616,76.2086060012,0.99999988482,CNCng
0.943443307057,65.8996463906,0.99999999969,CNDu2
1.62098652251,121.393056137,1.0,CNHa2
1.62098652251,121.393056137,1.0,CNHaM
0.656332347216,44.0235634524,0.999999940376,CNSw2
1.64541065154,135.175747118,1.0,CZBK1
1.64541065154,135.175747118,1.0,CZBK2
1.27996032534,95.0929816483,0.999999999993,DEAkm
1.64541065151,133.99709212,1.0,DEGri
1.64541065151,133.99709212,1.0,DEHai
1.64541065151,133.99709212,1.0,DEKli
0.543636009966,34.9395760702,0.999999993583,DELkb
1.64541065151,133.99709212,1.0,DEObe
1.64541065151,133.99709212,1.0,DERuS
1.02847334809,72.924862049,0.999999995989,DESfN
1.64541065151,133.67166972,1.0,DESpw
1.64541065151,133.99709212,1.0,DETha
0.540328156312,34.5644790624,0.999999979616,DKNuF
1.15925993144,83.8692188921,0.999999993239,DKSor
1.62098652251,121.393056137,1.0,ESLgS
1.62098652251,121.393056137,1.0,ESLn2
1.14968279575,86.1620730424,0.999999999998,FIJok
1.03057647948,73.2282338318,0.999999999299,FRFon
0.543637257078,34.9396435502,0.999999992925,FRGri
1.09224223433,76.8483079877,0.999999992639,FRPue
0.823859958194,55.3956653655,0.999999985848,ITBCi
0.943447392044,65.7174899496,0.999999999654,ITCA1
0.943446958159,65.7174774812,0.999999999652,ITCA2
0.943444130197,65.7173601411,0.999999999642,ITCA3
0.656359385043,44.024675738,0.999999940649,ITCp2
1.08213142492,76.135317789,0.999999886291,ITIsp
1.08196381155,76.3149513376,0.999999945328,ITLa2
1.08214534802,76.322447004,0.999999933764,ITLav
0.823860800644,55.3956830287,0.9999999841,ITNoe
1.08215064953,76.2075342006,0.999999881332,ITPT1
1.08271017005,76.8790098177,0.999999962032,ITRen
0.943449864413,65.7175971244,0.999999999668,ITRo1
0.943450935647,65.7176402664,0.999999999679,ITRo2
1.09225158244,76.8486475936,0.999999994486,ITSR2
1.09226278422,76.8491051262,0.99999999166,ITSRo
1.08139619279,76.1048185809,0.999999950208,ITTor
1.09120798433,76.6138031957,0.99999998925,JPMBF
1.62098652251,120.058055071,1.0,JPSMF
1.64541065151,133.566309204,1.0,NLHor
1.64541065151,133.67166972,1.0,NLLoo
1.07157774215,76.1889854763,0.999999999414,RUChe
1.15926695466,84.2749878124,0.999999993329,RUFyo
1.15925297423,83.2627832504,0.999999994269,RUHa1
1.62098652251,121.903881761,1.0,USAR1
1.62098652251,121.903881761,1.0,USAR2
1.62098652251,121.903881761,1.0,USARM
0.82376151184,55.3916064101,0.999999987291,USBlo
0.943438874501,65.7171480919,0.999999999695,USHa1
1.08263574422,76.5732659477,0.999999926915,USLos
0.823861513348,55.3957558324,0.999999981207,USMMS
1.08171109565,76.189385006,0.999999883046,USMe1
1.09130749731,76.6179139205,0.999999984331,USMe2
1.09129727417,76.6174805394,0.999999984539,USMe6
0.825094852981,56.6910253529,1.0,USMyb
0.82367945012,55.3882469448,0.99999999111,USNR1
0.656295348571,44.0221783728,0.999999927566,USNe1
0.656295065374,44.0221595845,0.999999929484,USNe2
0.656315996547,44.0230199389,0.99999992729,USNe3
1.08231974737,76.3296767339,0.99999990145,USPFa
0.618345623989,39.1768737214,0.999999745781,USSRG
0.618420352381,39.1798796552,0.999999728013,USSRM
1.08262248933,76.5727089446,0.999999924119,USSyv
0.825095099825,56.6910357437,1.0,USTon
0.825095057656,56.6910334874,1.0,USTw1
0.82509465924,56.6910175021,1.0,USTw2
0.825094983371,56.6910305044,1.0,USTw3
0.825094818979,56.6910238306,1.0,USTwt
1.0819413277,76.1274920338,0.999999899782,USUMB
1.08195817767,76.1281494688,0.999999895911,USUMd
0.825094739696,56.6910207662,1.0,USVar
1.08194079891,76.12743861,0.999999894571,USWCr
0.618398024089,39.1789227085,0.999999729613,USWhs
1.08314765084,76.8970579092,0.99999993045,USWi0
1.08304176187,76.8927567316,0.999999928941,USWi3
1.08322349281,76.7058762083,0.999999931529,USWi4
1.08300611036,76.8912455379,0.999999916705,USWi6
1.08305605841,76.8932722588,0.999999933975,USWi9
0.618363195311,39.1774714768,0.99999974854,USWkg
