E,norm_lnB0,r_sq,site_ID
0.676235348729,45.8373222942,1.0,ARSLu
0.676235348729,45.8373222942,1.0,ARVir
0.676235348729,45.8373222942,1.0,ATNeu
0.676235348729,45.8373222942,1.0,AUCpr
0.676235348729,45.8373222942,1.0,AUCum
0.676235348729,45.8373222942,1.0,AURig
0.676235348729,45.8373222942,1.0,AUTum
0.676235348729,45.8373222942,1.0,AUWhr
0.676235348729,45.8373222942,1.0,BEBra
0.676235348729,45.8373222942,1.0,BELon
0.676235348729,45.8373222942,1.0,BEVie
0.676235348729,45.8373222942,1.0,CANS1
0.676235348729,45.8373222942,1.0,CANS2
0.676235348729,45.8373222942,1.0,CANS3
0.676235348729,45.8373222942,1.0,CANS4
0.676235348729,45.8373222942,1.0,CANS5
0.676235348729,45.8373222942,1.0,CANS6
0.676235348729,45.8373222942,1.0,CANS7
0.676235348729,45.8373222942,1.0,CAQfo
0.676235348729,45.8373222942,1.0,CASF1
0.676235348729,45.8373222942,1.0,CASF2
0.676235348729,45.8373222942,1.0,CASF3
0.676235348729,45.8373222942,1.0,CHCha
0.676235348729,45.8373222942,1.0,CHFru
0.676235348729,45.8373222942,1.0,CHOe1
0.676235348729,45.8373222942,1.0,CNCha
0.676235348729,45.8373222942,1.0,CNCng
0.676235348729,45.8373222942,1.0,CNDu2
0.676235348729,45.8373222942,1.0,CNHa2
0.676235348729,45.8373222942,1.0,CNHaM
0.676235348729,45.8373222942,1.0,CNSw2
0.676235348729,45.8373222942,1.0,CZBK1
0.676235348729,45.8373222942,1.0,CZBK2
0.676235348729,45.8373222942,1.0,DEAkm
0.676235348729,45.8373222942,1.0,DEGri
0.676235348729,45.8373222942,1.0,DEHai
0.676235348729,45.8373222942,1.0,DEKli
0.676235348729,45.8373222942,1.0,DELkb
0.676235348729,45.8373222942,1.0,DEObe
0.676235348729,45.8373222942,1.0,DERuS
0.676235348729,45.8373222942,1.0,DESfN
0.676235348729,45.8373222942,1.0,DESpw
0.676235348729,45.8373222942,1.0,DETha
0.676235348729,45.8373222942,1.0,DKNuF
0.676235348729,45.8373222942,1.0,DKSor
0.676235348729,45.8373222942,1.0,ESLgS
0.676235348729,45.8373222942,1.0,ESLn2
0.676235348729,45.8373222942,1.0,FIJok
0.676235348729,45.8373222942,1.0,FRFon
0.676235348729,45.8373222942,1.0,FRGri
0.676235348729,45.8373222942,1.0,FRPue
0.676235348729,45.8373222942,1.0,ITBCi
0.676235348729,45.8373222942,1.0,ITCA1
0.676235348729,45.8373222942,1.0,ITCA2
0.676235348729,45.8373222942,1.0,ITCA3
0.676235348729,45.8373222942,1.0,ITCp2
0.676235348729,45.8373222942,1.0,ITIsp
0.676235348729,45.8373222942,1.0,ITLa2
0.676235348729,45.8373222942,1.0,ITLav
0.676235348729,45.8373222942,1.0,ITNoe
0.676235348729,45.8373222942,1.0,ITPT1
0.676235348729,45.8373222942,1.0,ITRen
0.676235348729,45.8373222942,1.0,ITRo1
0.676235348729,45.8373222942,1.0,ITRo2
0.676235348729,45.8373222942,1.0,ITSR2
0.676235348729,45.8373222942,1.0,ITSRo
0.676235348729,45.8373222942,1.0,ITTor
0.676235348729,45.8373222942,1.0,JPMBF
0.676235348729,45.8373222942,1.0,JPSMF
0.676235348729,45.8373222942,1.0,NLHor
0.676235348729,45.8373222942,1.0,NLLoo
0.676235348729,45.8373222942,1.0,RUChe
0.676235348729,45.8373222942,1.0,RUFyo
0.676235348729,45.8373222942,1.0,RUHa1
0.676235348729,45.8373222942,1.0,USAR1
0.676235348729,45.8373222942,1.0,USAR2
0.676235348729,45.8373222942,1.0,USARM
0.676235348729,45.8373222942,1.0,USBlo
0.676235348729,45.8373222942,1.0,USHa1
0.676235348729,45.8373222942,1.0,USLos
0.676235348729,45.8373222942,1.0,USMMS
0.676235348729,45.8373222942,1.0,USMe1
0.676235348729,45.8373222942,1.0,USMe2
0.676235348729,45.8373222942,1.0,USMe6
0.676235348729,45.8373222942,1.0,USMyb
0.676235348729,45.8373222942,1.0,USNR1
0.676235348729,45.8373222942,1.0,USNe1
0.676235348729,45.8373222942,1.0,USNe2
0.676235348729,45.8373222942,1.0,USNe3
0.676235348729,45.8373222942,1.0,USPFa
0.676235348729,45.8373222942,1.0,USSRG
0.676235348729,45.8373222942,1.0,USSRM
0.676235348729,45.8373222942,1.0,USSyv
0.676235348729,45.8373222942,1.0,USTon
0.676235348729,45.8373222942,1.0,USTw1
0.676235348729,45.8373222942,1.0,USTw2
0.676235348729,45.8373222942,1.0,USTw3
0.676235348729,45.8373222942,1.0,USTwt
0.676235348729,45.8373222942,1.0,USUMB
0.676235348729,45.8373222942,1.0,USUMd
0.676235348729,45.8373222942,1.0,USVar
0.676235348729,45.8373222942,1.0,USWCr
0.676235348729,45.8373222942,1.0,USWhs
0.676235348729,45.8373222942,1.0,USWi0
0.676235348729,45.8373222942,1.0,USWi3
0.676235348729,45.8373222942,1.0,USWi4
0.676235348729,45.8373222942,1.0,USWi6
0.676235348729,45.8373222942,1.0,USWi9
0.676235348729,45.8373222942,1.0,USWkg
