\relax 
\citation{currie1991energy}
\citation{kerkhoff2014latitudinal}
\@writefile{toc}{\contentsline {section}{\numberline {1}Derivations of Analytic Expectations}{1}}
\@writefile{toc}{\contentsline {subsection}{\numberline {1.1}Species Richness}{1}}
\citation{UCAR}
\citation{pawar2016thermal}
\citation{pawar2016thermal}
\citation{pawar2016thermal}
\@writefile{toc}{\contentsline {subsection}{\numberline {1.2}Temperature Range}{2}}
\@writefile{toc}{\contentsline {subsection}{\numberline {1.3}Species Richness + Temperature Range}{4}}
\@writefile{toc}{\contentsline {section}{\numberline {2}Using Gentry Data to Derive $r_j$ trend}{4}}
\@writefile{toc}{\contentsline {section}{\numberline {3}Cleaning and Filtering of the FLUXNET Database}{5}}
\@writefile{toc}{\contentsline {section}{\numberline {4}Using FLUXNET data to Derive $T_{\mathrm  {range}_j}$trend}{6}}
\@writefile{toc}{\contentsline {section}{\numberline {5}Fitting Species' Thermal Response Curves from BioTraits}{6}}
\@writefile{toc}{\contentsline {section}{\numberline {6}FLUXNET measured max temperatures vs. BioTraits T$_\mathrm  {peak}$ values}{7}}
\citation{damuth1981population}
\citation{brown2004toward}
\citation{gillooly2001effects}
\citation{savage2004predominance}
\citation{enquist2003scaling}
\citation{cheng2010scaling}
\citation{mori2010mixed}
\citation{reich2006universal}
\@writefile{toc}{\contentsline {section}{\numberline {7}Model derivation}{8}}
\@writefile{toc}{\contentsline {section}{\numberline {8}Analytic derivation of ecosystem thermal sensitivity from my model}{9}}
\@writefile{toc}{\contentsline {section}{\numberline {9}Example plots of simulated and actual data for site USNe1}{10}}
\@writefile{lof}{\contentsline {figure}{\numberline {1}{\ignorespaces Species Richness Simulation}}{10}}
\providecommand*\caption@xref[2]{\@setref\relax\@undefined{#1}}
\newlabel{fig:species richness sim}{{1}{10}}
\@writefile{lof}{\contentsline {figure}{\numberline {2}{\ignorespaces Temperature Range Simulation}}{10}}
\newlabel{fig:species richness sim}{{2}{10}}
\@writefile{lof}{\contentsline {figure}{\numberline {3}{\ignorespaces Species Richness and Temperature Range Simulation}}{11}}
\newlabel{fig:species richness sim}{{3}{11}}
\@writefile{toc}{\contentsline {section}{\numberline {10}Simulations}{11}}
\@writefile{toc}{\contentsline {subsection}{\numberline {10.1}Richness w.r.t. Absolute Latitude Simulations}{11}}
\@writefile{toc}{\contentsline {subsection}{\numberline {10.2}$T_{\mathrm  {range}}$ w.r.t. Absolute Latitude Simulations}{12}}
\@writefile{toc}{\contentsline {subsection}{\numberline {10.3}Species Richness and $T_{\mathrm  {range}}$ w.r.t. Absolute Latitude Simulations}{12}}
\@writefile{toc}{\contentsline {section}{\numberline {11}Fitting FLUXNET thermal sensitivity values}{13}}
\@writefile{toc}{\contentsline {section}{\numberline {12}Removal of FLUXNET sites with outlier thermal sensitivity values}{13}}
\@writefile{lof}{\contentsline {figure}{\numberline {4}{\ignorespaces Outlier thermal sensitivities}}{14}}
\newlabel{fig:oultier E values}{{4}{14}}
\@writefile{toc}{\contentsline {section}{\numberline {13}Simulated Variance Caused by Changes in Temperature Range and Species Richness}{14}}
\@writefile{toc}{\contentsline {subsection}{\numberline {13.1}Species Richness}{15}}
\@writefile{toc}{\contentsline {subsection}{\numberline {13.2}Temperature Range}{15}}
\@writefile{toc}{\contentsline {subsection}{\numberline {13.3}Species Richness + Temperature Range}{15}}
\@writefile{lof}{\contentsline {figure}{\numberline {5}{\ignorespaces Simulated vs. predicted variance}}{16}}
\newlabel{fig:oultier E values}{{5}{16}}
\@writefile{toc}{\contentsline {section}{\numberline {14}Some further model assumptions and caveats}{16}}
\bibstyle{plainnat}
\bibdata{Full_Biblio.bib}
\bibcite{brown2004toward}{{1}{2004}{{Brown et~al.}}{{Brown, Gillooly, Allen, Savage, and West}}}
\bibcite{cheng2010scaling}{{2}{2010}{{Cheng et~al.}}{{Cheng, Li, Zhong, and Wang}}}
\bibcite{currie1991energy}{{3}{1991}{{Currie}}{{}}}
\bibcite{damuth1981population}{{4}{1981}{{Damuth}}{{}}}
\bibcite{enquist2003scaling}{{5}{2003}{{Enquist et~al.}}{{Enquist, Economo, Huxman, Allen, Ignace, and Gillooly}}}
\bibcite{gillooly2001effects}{{6}{2001}{{Gillooly et~al.}}{{Gillooly, Brown, West, Savage, and Charnov}}}
\bibcite{kerkhoff2014latitudinal}{{7}{2014}{{Kerkhoff et~al.}}{{Kerkhoff, Moriarty, and Weiser}}}
\bibcite{mori2010mixed}{{8}{2010}{{Mori et~al.}}{{Mori, Yamaji, Ishida, Prokushkin, Masyagina, Hagihara, Hoque, Suwa, Osawa, Nishizono, et~al.}}}
\bibcite{UCAR}{{9}{NCAR}{{}}{{(2016)}}}
\bibcite{pawar2016thermal}{{10}{2016}{{Pawar et~al.}}{{Pawar, Dell, Savage, and Knies}}}
\bibcite{reich2006universal}{{11}{2006}{{Reich et~al.}}{{Reich, Tjoelker, Machado, and Oleksyn}}}
\bibcite{savage2004predominance}{{12}{2004}{{Savage et~al.}}{{Savage, Gillooly, Woodruff, West, Allen, Enquist, and Brown}}}
