\relax 
\@writefile{toc}{\contentsline {paragraph}{Synthesis: }{3}}
\@writefile{toc}{\contentsline {paragraph}{Key-Words: }{3}}
\@writefile{toc}{\contentsline {section}{List of Figures}{4}}
\@writefile{toc}{\contentsline {section}{List of Tables}{5}}
\citation{houghton2001climate}
\citation{cramer2001global}
\citation{frank2015effects}
\citation{field2014ipcc}
\citation{stocker2014climate}
\citation{yuan2011thermal}
\citation{enquist2003scaling}
\citation{osmond2004changing}
\citation{may1999unanswered}
\citation{enquist2003scaling}
\citation{yvon2012reconciling}
\citation{allen2005linking}
\citation{schoolfield1981non}
\citation{brown2004toward}
\citation{huey1984jack}
\citation{huey1979integrating}
\citation{huey1989evolution}
\citation{angilletta2002evolution}
\citation{gillooly2001effects}
\citation{huey2011variation}
\citation{pawar2016thermal}
\citation{hew1969effects}
\citation{brown2004toward}
\citation{yvon2012reconciling}
\citation{price2010metabolic}
\citation{enquist2003scaling}
\citation{allen2005linking}
\citation{yvon2012reconciling}
\citation{dell2011systematic}
\citation{salinprep}
\@writefile{toc}{\contentsline {chapter}{\numberline {1}Introduction}{7}}
\@writefile{lof}{\addvspace {10\p@ }}
\@writefile{lot}{\addvspace {10\p@ }}
\citation{salinprep}
\@writefile{lof}{\contentsline {figure}{\numberline {1.1}{\ignorespaces Illustrated thermal performance curve and fitted thermal sensitivity}}{8}}
\providecommand*\caption@xref[2]{\@setref\relax\@undefined{#1}}
\newlabel{fig:activation_E}{{1.1}{8}}
\@writefile{lof}{\contentsline {figure}{\numberline {1.2}{\ignorespaces Scaling-up of variance in thermal sensitivity}}{10}}
\newlabel{fig:ind_to_eco}{{1.2}{10}}
\@writefile{toc}{\contentsline {chapter}{\numberline {2}Methods}{11}}
\@writefile{lof}{\addvspace {10\p@ }}
\@writefile{lot}{\addvspace {10\p@ }}
\@writefile{toc}{\contentsline {section}{\numberline {2.1}1. Analytic Expectations}{11}}
\citation{fluxnet}
\citation{salinprep}
\citation{gentry1982patterns}
\citation{gentry1982patterns}
\citation{fluxnet}
\@writefile{toc}{\contentsline {section}{\numberline {2.2}2. Data Collection \& Fitting}{12}}
\citation{salinprep}
\citation{damuth1981population}
\citation{mori2010mixed}
\citation{cheng2010scaling}
\@writefile{lof}{\contentsline {figure}{\numberline {2.1}{\ignorespaces Simulated vs. mathematically derived trends}}{13}}
\newlabel{fig:expected_results}{{2.1}{13}}
\@writefile{lof}{\contentsline {figure}{\numberline {2.2}{\ignorespaces Thermal sensitivities measured in Fluxnet and BioTraits}}{14}}
\newlabel{fig:expected_results}{{2.2}{14}}
\@writefile{toc}{\contentsline {section}{\numberline {2.3}3. Mechanistic Model}{14}}
\@writefile{toc}{\contentsline {subsection}{\numberline {2.3.1}Scaling up species to ecosystem respiration}{14}}
\citation{reich2006universal}
\citation{cheng2010scaling}
\citation{enquist2001invariant}
\@writefile{toc}{\contentsline {subsection}{\numberline {2.3.2}Simulations pipeline}{15}}
\@writefile{toc}{\contentsline {paragraph}{\emph  {Part 1.}}{15}}
\@writefile{toc}{\contentsline {paragraph}{\emph  {Part 2.}}{16}}
\@writefile{toc}{\contentsline {subsection}{\numberline {2.3.3}Application of specific constraints}{16}}
\@writefile{toc}{\contentsline {paragraph}{\emph  {Species Richness}}{16}}
\@writefile{toc}{\contentsline {paragraph}{\emph  {Temperature Range}}{16}}
\@writefile{toc}{\contentsline {paragraph}{\emph  {Species Richness + Temperature Range}}{16}}
\@writefile{toc}{\contentsline {section}{\numberline {2.4}4. Model Validation Using Empirical Data}{17}}
\@writefile{toc}{\contentsline {chapter}{\numberline {3}Results}{18}}
\@writefile{lof}{\addvspace {10\p@ }}
\@writefile{lot}{\addvspace {10\p@ }}
\@writefile{toc}{\contentsline {paragraph}{\emph  {FLUXNET}}{18}}
\@writefile{toc}{\contentsline {paragraph}{\emph  {Species Richness}}{18}}
\@writefile{toc}{\contentsline {paragraph}{\emph  {Temperature Range}}{18}}
\@writefile{toc}{\contentsline {paragraph}{\emph  {Species Richness + Temperature Range}}{18}}
\@writefile{lof}{\contentsline {figure}{\numberline {3.1}{\ignorespaces Simulated vs. actual data $\mathrm  {Var}(E_j^{\mathrm  {Eco}})$ across latitudinal gradients}}{20}}
\newlabel{fig:simulated_results}{{3.1}{20}}
\@writefile{lot}{\contentsline {table}{\numberline {3.1}{\ignorespaces Comparing variance within FLUXNET and within each simulation}}{21}}
\newlabel{Figure:simulated_results}{{3.1}{21}}
\@writefile{lot}{\contentsline {table}{\numberline {3.2}{\ignorespaces Comparing variance between FLUXNET and simulations}}{22}}
\newlabel{Figure:simulated_results}{{3.2}{22}}
\citation{enquist2003scaling}
\citation{allen2005linking}
\@writefile{toc}{\contentsline {chapter}{\numberline {4}Discussion}{23}}
\@writefile{lof}{\addvspace {10\p@ }}
\@writefile{lot}{\addvspace {10\p@ }}
\@writefile{toc}{\contentsline {chapter}{\numberline {5}Acknowledgements}{25}}
\@writefile{lof}{\addvspace {10\p@ }}
\@writefile{lot}{\addvspace {10\p@ }}
\bibstyle{plainnat}
\bibdata{Full_Biblio.bib}
\bibcite{allen2005linking}{{1}{2005}{{Allen et~al.}}{{Allen, Gillooly, and Brown}}}
\bibcite{angilletta2002evolution}{{2}{2002}{{Angilletta et~al.}}{{Angilletta, Niewiarowski, and Navas}}}
\bibcite{brown2004toward}{{3}{2004}{{Brown et~al.}}{{Brown, Gillooly, Allen, Savage, and West}}}
\bibcite{cheng2010scaling}{{4}{2010}{{Cheng et~al.}}{{Cheng, Li, Zhong, and Wang}}}
\bibcite{cramer2001global}{{5}{2001}{{Cramer et~al.}}{{Cramer, Bondeau, Woodward, Prentice, Betts, Brovkin, Cox, Fisher, Foley, Friend, et~al.}}}
\bibcite{fluxnet}{{6}{2015}{{DAAC)}}{{}}}
\bibcite{damuth1981population}{{7}{1981}{{Damuth}}{{}}}
\bibcite{dell2011systematic}{{8}{2011}{{Dell et~al.}}{{Dell, Pawar, and Savage}}}
\bibcite{enquist2001invariant}{{9}{2001}{{Enquist and Niklas}}{{}}}
\bibcite{enquist2003scaling}{{10}{2003}{{Enquist et~al.}}{{Enquist, Economo, Huxman, Allen, Ignace, and Gillooly}}}
\bibcite{field2014ipcc}{{11}{2014}{{Field et~al.}}{{Field, Barros, Dokken, Mach, Mastrandrea, Bilir, Chatterjee, Ebi, Estrada, Genova, et~al.}}}
\bibcite{frank2015effects}{{12}{2015}{{Frank et~al.}}{{Frank, Reichstein, Bahn, Thonicke, Frank, Mahecha, Smith, Velde, Vicca, Babst, et~al.}}}
\bibcite{gentry1982patterns}{{13}{1982}{{Gentry}}{{}}}
\bibcite{gillooly2001effects}{{14}{2001}{{Gillooly et~al.}}{{Gillooly, Brown, West, Savage, and Charnov}}}
\bibcite{hew1969effects}{{15}{1969}{{Hew et~al.}}{{Hew, Krotkov, and Canvin}}}
\bibcite{houghton2001climate}{{16}{2001}{{Houghton et~al.}}{{Houghton, Ding, Griggs, Noguer, van~der Linden, X.~Dai, and Johnson}}}
\bibcite{huey1984jack}{{17}{1984}{{Huey and Hertz}}{{}}}
\bibcite{huey1989evolution}{{18}{1989}{{Huey and Kingsolver}}{{}}}
\bibcite{huey2011variation}{{19}{2011}{{Huey and Kingsolver}}{{}}}
\bibcite{huey1979integrating}{{20}{1979}{{Huey and Stevenson}}{{}}}
\bibcite{may1999unanswered}{{21}{1999}{{May}}{{}}}
\bibcite{mori2010mixed}{{22}{2010}{{Mori et~al.}}{{Mori, Yamaji, Ishida, Prokushkin, Masyagina, Hagihara, Hoque, Suwa, Osawa, Nishizono, et~al.}}}
\bibcite{osmond2004changing}{{23}{2004}{{Osmond et~al.}}{{Osmond, Ananyev, Berry, Langdon, Kolber, Lin, Monson, Nichol, Rascher, Schurr, et~al.}}}
\bibcite{pawar2016thermal}{{24}{2016}{{Pawar et~al.}}{{Pawar, Dell, Savage, and Knies}}}
\bibcite{price2010metabolic}{{25}{2010}{{Price et~al.}}{{Price, Gilooly, Allen, Weitz, and Niklas}}}
\bibcite{reich2006universal}{{26}{2006}{{Reich et~al.}}{{Reich, Tjoelker, Machado, and Oleksyn}}}
\bibcite{salinprep}{{27}{in prep.}{{Sal et~al.}}{{Sal, Yvon-Durocher, García-Carreras, Sheppard, Rizzuto, and Pawar}}}
\bibcite{schoolfield1981non}{{28}{1981}{{Schoolfield et~al.}}{{Schoolfield, Sharpe, and Magnuson}}}
\bibcite{stocker2014climate}{{29}{2014}{{Stocker et~al.}}{{Stocker, Qin, Plattner, Tignor, Allen, Boschung, Nauels, Xia, Bex, and Midgley}}}
\bibcite{yuan2011thermal}{{30}{2011}{{Yuan et~al.}}{{Yuan, Luo, Liang, Yu, Niu, Stoy, Chen, Desai, Lindroth, Gough, et~al.}}}
\bibcite{yvon2012reconciling}{{31}{2012}{{Yvon-Durocher et~al.}}{{Yvon-Durocher, Caffrey, Cescatti, Dossena, del Giorgio, Gasol, Montoya, Pumpanen, Staehr, Trimmer, et~al.}}}
