\relax 
\@writefile{toc}{\contentsline {section}{List of Figures}{3}}
\@writefile{toc}{\contentsline {section}{List of Tables}{4}}
\citation{houghton2001climate}
\citation{cramer2001global}
\citation{frank2015effects}
\citation{field2014ipcc}
\citation{stocker2014climate}
\citation{yuan2011thermal}
\citation{enquist2003scaling}
\citation{osmond2004changing}
\citation{may1999unanswered}
\citation{enquist2003scaling}
\citation{yvon2012reconciling}
\citation{allen2005linking}
\citation{schoolfield1981non}
\citation{brown2004toward}
\citation{huey1984jack}
\citation{huey1979integrating}
\citation{huey1989evolution}
\citation{brown2004toward}
\citation{gillooly2001effects}
\citation{savage2004predominance}
\citation{pawar2016thermal}
\citation{hew1969effects}
\citation{brown2004toward}
\citation{yvon2012reconciling}
\citation{price2010metabolic}
\citation{enquist2003scaling}
\citation{yvon2012reconciling}
\citation{allen2005linking}
\citation{enquist2003scaling}
\citation{dell2011systematic}
\@writefile{toc}{\contentsline {chapter}{\numberline {1}Introduction}{6}}
\@writefile{lof}{\addvspace {10\p@ }}
\@writefile{lot}{\addvspace {10\p@ }}
\@writefile{lof}{\contentsline {figure}{\numberline {1.1}{\ignorespaces Illustrated thermal performance curve and fitted thermal sensitivity}}{7}}
\providecommand*\caption@xref[2]{\@setref\relax\@undefined{#1}}
\newlabel{fig:activation_E}{{1.1}{7}}
\@writefile{lof}{\contentsline {figure}{\numberline {1.2}{\ignorespaces Scaling-up of variance in thermal sensitivity}}{8}}
\newlabel{fig:ind_to_eco}{{1.2}{8}}
\citation{damuth1981population}
\citation{mori2010mixed}
\citation{cheng2010scaling}
\@writefile{toc}{\contentsline {chapter}{\numberline {2}Methods}{10}}
\@writefile{lof}{\addvspace {10\p@ }}
\@writefile{lot}{\addvspace {10\p@ }}
\@writefile{toc}{\contentsline {section}{\numberline {2.1}The Model}{10}}
\@writefile{toc}{\contentsline {section}{\numberline {2.2}Analytic Predictions}{11}}
\citation{fluxnet}
\citation{gentry1982patterns}
\citation{gentry1982patterns}
\@writefile{toc}{\contentsline {section}{\numberline {2.3}Data-Driven Predicted Trends in Variance}{12}}
\@writefile{toc}{\contentsline {subsection}{\numberline {2.3.1}Data Collection}{12}}
\citation{fluxnet}
\@writefile{lof}{\contentsline {figure}{\numberline {2.1}{\ignorespaces Simulated vs. mathematically derived trends}}{14}}
\newlabel{fig:expected_results}{{2.1}{14}}
\@writefile{lof}{\contentsline {figure}{\numberline {2.2}{\ignorespaces Thermal sensitivities measured in Fluxnet and BioTraits}}{14}}
\newlabel{fig:expected_results}{{2.2}{14}}
\citation{reich2006universal}
\citation{cheng2010scaling}
\citation{enquist2001invariant}
\@writefile{toc}{\contentsline {subsection}{\numberline {2.3.2}Simulations}{15}}
\@writefile{toc}{\contentsline {subsubsection}{Species Richness}{16}}
\@writefile{toc}{\contentsline {subsubsection}{Temperature Range}{16}}
\@writefile{toc}{\contentsline {subsubsection}{Species Richness + Temperature Range}{17}}
\@writefile{toc}{\contentsline {section}{\numberline {2.4}Model Validation Using Empirical Data}{17}}
\@writefile{toc}{\contentsline {chapter}{\numberline {3}Results}{18}}
\@writefile{lof}{\addvspace {10\p@ }}
\@writefile{lot}{\addvspace {10\p@ }}
\@writefile{toc}{\contentsline {subsection}{\numberline {3.0.1}Species Richness}{18}}
\@writefile{toc}{\contentsline {subsection}{\numberline {3.0.2}Temperature Range}{18}}
\@writefile{toc}{\contentsline {subsection}{\numberline {3.0.3}Species Richness + Temperature Range}{19}}
\@writefile{lof}{\contentsline {figure}{\numberline {3.1}{\ignorespaces Simulated vs. actual data variance in $E$ across latitudinal gradients}}{20}}
\newlabel{fig:simulated_results}{{3.1}{20}}
\@writefile{lot}{\contentsline {table}{\numberline {3.1}{\ignorespaces Bartlett's Test for Equality of Variances: comparing variance within FLUXNET and within each simulation}}{21}}
\newlabel{Figure:simulated_results}{{3.1}{21}}
\@writefile{lot}{\contentsline {table}{\numberline {3.2}{\ignorespaces Bartlett's Test for Equality of Variances: comparing variance between FLUXNET and simulations}}{21}}
\newlabel{Figure:simulated_results}{{3.2}{21}}
\citation{enquist2003scaling}
\@writefile{toc}{\contentsline {chapter}{\numberline {4}Discussion}{22}}
\@writefile{lof}{\addvspace {10\p@ }}
\@writefile{lot}{\addvspace {10\p@ }}
\bibstyle{plainnat}
\bibdata{Full_Biblio.bib}
\bibcite{allen2005linking}{{1}{2005}{{Allen et~al.}}{{Allen, Gillooly, and Brown}}}
\bibcite{brown2004toward}{{2}{2004}{{Brown et~al.}}{{Brown, Gillooly, Allen, Savage, and West}}}
\bibcite{cheng2010scaling}{{3}{2010}{{Cheng et~al.}}{{Cheng, Li, Zhong, and Wang}}}
\bibcite{cramer2001global}{{4}{2001}{{Cramer et~al.}}{{Cramer, Bondeau, Woodward, Prentice, Betts, Brovkin, Cox, Fisher, Foley, Friend, et~al.}}}
\bibcite{fluxnet}{{5}{2015}{{DAAC}}{{}}}
\bibcite{damuth1981population}{{6}{1981}{{Damuth}}{{}}}
\bibcite{dell2011systematic}{{7}{2011}{{Dell et~al.}}{{Dell, Pawar, and Savage}}}
\bibcite{enquist2001invariant}{{8}{2001}{{Enquist and Niklas}}{{}}}
\bibcite{enquist2003scaling}{{9}{2003}{{Enquist et~al.}}{{Enquist, Economo, Huxman, Allen, Ignace, and Gillooly}}}
\bibcite{field2014ipcc}{{10}{2014}{{Field et~al.}}{{Field, Barros, Dokken, Mach, Mastrandrea, Bilir, Chatterjee, Ebi, Estrada, Genova, et~al.}}}
\bibcite{frank2015effects}{{11}{2015}{{Frank et~al.}}{{Frank, Reichstein, Bahn, Thonicke, Frank, Mahecha, Smith, Velde, Vicca, Babst, et~al.}}}
\bibcite{gentry1982patterns}{{12}{1982}{{Gentry}}{{}}}
\bibcite{gillooly2001effects}{{13}{2001}{{Gillooly et~al.}}{{Gillooly, Brown, West, Savage, and Charnov}}}
\bibcite{hew1969effects}{{14}{1969}{{Hew et~al.}}{{Hew, Krotkov, and Canvin}}}
\bibcite{houghton2001climate}{{15}{2001}{{Houghton et~al.}}{{Houghton, Ding, Griggs, Noguer, van~der Linden, X.~Dai, and Johnson}}}
\bibcite{huey1984jack}{{16}{1984}{{Huey and Hertz}}{{}}}
\bibcite{huey1989evolution}{{17}{1989}{{Huey and Kingsolver}}{{}}}
\bibcite{huey1979integrating}{{18}{1979}{{Huey and Stevenson}}{{}}}
\bibcite{may1999unanswered}{{19}{1999}{{May}}{{}}}
\bibcite{mori2010mixed}{{20}{2010}{{Mori et~al.}}{{Mori, Yamaji, Ishida, Prokushkin, Masyagina, Hagihara, Hoque, Suwa, Osawa, Nishizono, et~al.}}}
\bibcite{osmond2004changing}{{21}{2004}{{Osmond et~al.}}{{Osmond, Ananyev, Berry, Langdon, Kolber, Lin, Monson, Nichol, Rascher, Schurr, et~al.}}}
\bibcite{pawar2016thermal}{{22}{2016}{{Pawar et~al.}}{{Pawar, Dell, Savage, and Knies}}}
\bibcite{price2010metabolic}{{23}{2010}{{Price et~al.}}{{Price, Gilooly, Allen, Weitz, and Niklas}}}
\bibcite{reich2006universal}{{24}{2006}{{Reich et~al.}}{{Reich, Tjoelker, Machado, and Oleksyn}}}
\bibcite{savage2004predominance}{{25}{2004}{{Savage et~al.}}{{Savage, Gillooly, Woodruff, West, Allen, Enquist, and Brown}}}
\bibcite{schoolfield1981non}{{26}{1981}{{Schoolfield et~al.}}{{Schoolfield, Sharpe, and Magnuson}}}
\bibcite{stocker2014climate}{{27}{2014}{{Stocker et~al.}}{{Stocker, Qin, Plattner, Tignor, Allen, Boschung, Nauels, Xia, Bex, and Midgley}}}
\bibcite{yuan2011thermal}{{28}{2011}{{Yuan et~al.}}{{Yuan, Luo, Liang, Yu, Niu, Stoy, Chen, Desai, Lindroth, Gough, et~al.}}}
\bibcite{yvon2012reconciling}{{29}{2012}{{Yvon-Durocher et~al.}}{{Yvon-Durocher, Caffrey, Cescatti, Dossena, del Giorgio, Gasol, Montoya, Pumpanen, Staehr, Trimmer, et~al.}}}
