E,lnB0,r_sq,site_ID
1.43861655475,109.031242913,1.0,ARSLu
0.910695122411,62.1029733499,0.999999999801,ARVir
1.02778198775,72.6258656039,0.999999996238,ATNeu
1.43861655475,108.974075021,1.0,AUCpr
1.43861655475,109.17918463,1.0,AUCum
1.43861655475,108.167377435,1.0,AURig
1.43861655475,107.558415224,1.0,AUTum
1.43861655475,108.109697464,1.0,AUWhr
1.6454106515,133.582482952,1.0,BEBra
1.64541065154,134.69667316,1.0,BELon
1.64541065154,134.673013517,1.0,BEVie
1.15688913147,83.3797882301,0.999999977321,CANS1
1.15835651715,83.7091552944,0.999999989542,CANS2
1.15920416958,84.0927405384,0.999999994385,CANS3
1.15957499401,83.7530501723,0.999999993355,CANS4
1.16009497993,83.76844365,0.999999996303,CANS5
1.15922893895,83.9074820273,0.999999991973,CANS6
1.15795286368,83.9927099329,0.999999985761,CANS7
1.64541065154,135.142204866,1.0,CAQfo
1.27996149163,95.3719369086,0.999999999994,CASF1
1.27998071057,95.4116943925,0.999999999995,CASF2
1.2799539635,95.1026280793,0.999999999991,CASF3
1.02729443271,72.7272990219,0.999999994104,CHCha
1.02839233372,72.9446379243,0.999999995928,CHFru
1.02934991301,72.9466169942,0.99999999783,CHOe1
0.942902724686,65.7487368918,0.999999999721,CNCha
1.08102869901,76.1721108838,0.999999869197,CNCng
0.943189547246,65.9601297148,0.999999999694,CNDu2
1.62098652251,121.514575439,1.0,CNHa2
1.62098652251,121.458363645,1.0,CNHaM
0.653509858563,43.936102884,0.999999937828,CNSw2
1.64541065154,135.181787538,1.0,CZBK1
1.64541065154,135.261133585,1.0,CZBK2
1.2799676128,95.239166261,0.999999999995,DEAkm
1.64541065147,133.19782617,1.0,DEGri
1.64541065152,134.103196656,1.0,DEHai
1.64541065146,132.777604152,1.0,DEKli
0.543350343906,34.8552311537,0.999999992673,DELkb
1.64541065152,134.098189415,1.0,DEObe
1.64541065148,133.36454732,1.0,DERuS
1.02915302606,72.9979948516,0.999999997809,DESfN
1.64541065152,133.475038403,1.0,DESpw
1.64541065151,134.159215786,1.0,DETha
0.540195701627,34.4668343597,0.999999974477,DKNuF
1.1596236977,84.0144246376,0.999999994553,DKSor
1.62098652251,121.498515573,1.0,ESLgS
1.62098652251,121.683538496,1.0,ESLn2
1.14968615659,86.2555599269,0.999999999999,FIJok
1.02985424469,72.8928299656,0.999999998989,FRFon
0.543572852188,34.9333715683,0.999999992133,FRGri
1.09189266033,76.6574450187,0.999999988306,FRPue
0.824075581267,55.6283608871,0.999999990292,ITBCi
0.942962657223,65.6973167159,0.999999999651,ITCA1
0.943755240328,65.8308262297,0.999999999671,ITCA2
0.942912752547,65.6249493894,0.999999999632,ITCA3
0.656736837447,43.957525074,0.999999938362,ITCp2
1.08285796695,76.2928905081,0.999999898147,ITIsp
1.07061746617,75.2793558102,0.999999857542,ITLa2
1.08564446597,76.6162001035,0.999999960296,ITLav
0.822723001516,54.8287945969,0.999999942659,ITNoe
1.08234456815,76.2083665746,0.999999876547,ITPT1
1.0850086148,77.0520106658,0.999999973785,ITRen
0.944086742873,65.6914537386,0.99999999968,ITRo1
0.943735425687,65.7960993052,0.999999999688,ITRo2
1.09226296396,76.6777004402,0.999999994532,ITSR2
1.09240642071,77.0241327193,0.999999993401,ITSRo
1.08217077107,76.3843813638,0.999999959826,ITTor
1.09084340232,76.6091928587,0.999999986022,JPMBF
1.62098652251,119.474488821,1.0,JPSMF
1.64541065147,132.935304816,1.0,NLHor
1.64541065153,133.835481016,1.0,NLLoo
1.07161340596,76.240722391,0.999999999494,RUChe
1.16023563552,84.3962052267,0.999999996505,RUFyo
1.1591961671,83.3825991957,0.999999994085,RUHa1
1.62098652251,121.963219688,1.0,USAR1
1.62098652251,121.424065154,1.0,USAR2
1.62098652251,121.933369066,1.0,USARM
0.823785406121,55.2751532181,0.999999987143,USBlo
0.943100589417,65.7771232747,0.999999999695,USHa1
1.08301957428,76.7431992948,0.999999931623,USLos
0.824013702352,55.6986364308,0.999999986125,USMMS
1.08370602766,76.501365341,0.999999918762,USMe1
1.09143367222,76.7948358757,0.999999986118,USMe2
1.08808213128,75.558881737,0.999999909682,USMe6
0.825094025267,56.5899294652,1.0,USMyb
0.823973135797,55.6222218401,0.999999994195,USNR1
0.65417070596,43.9112388235,0.999999920235,USNe1
0.659157282598,43.9401880687,0.999999932566,USNe2
0.655692830857,43.8363062834,0.999999914623,USNe3
1.08067080542,76.2378092222,0.999999876524,USPFa
0.619334087508,39.2590602378,0.999999779137,USSRG
0.619006951187,39.2297595198,0.999999716333,USSRM
1.08211239181,76.4334473924,0.999999914573,USSyv
0.825094451337,56.605785155,1.0,USTon
0.82509307971,56.453326046,0.999999999999,USTw1
0.825096060204,56.8791661569,1.0,USTw2
0.82509499866,56.6930655922,1.0,USTw3
0.825093946967,56.5856679338,1.0,USTwt
1.08303411095,76.2326804207,0.999999909067,USUMB
1.07897424184,75.8640452915,0.999999859276,USUMd
0.825093863162,56.5871365337,0.999999999999,USVar
1.08174413477,76.0934639413,0.999999891588,USWCr
0.614191624247,38.7289465721,0.999999547503,USWhs
1.08342047148,76.9700111035,0.99999993447,USWi0
1.08427024261,77.125545898,0.999999944897,USWi3
1.08489870119,76.8798916191,0.99999994803,USWi4
1.08608003754,76.9978470571,0.999999948902,USWi6
1.08528883231,77.0275265403,0.999999955459,USWi9
0.618770505599,39.1561283093,0.999999723322,USWkg
