"","FinalID","Species","Ea","lnB0","Latitude","Longitude","Biomass"
"1","MTD3244","Sphagnum squarrosum",0.927641110267914,41.285353982558,"68.633333","-149.366667",NA
"2","MTD3246","Sphagnum angustifolium",0.786649514207957,36.1016091050712,"68.633333","-149.366667",NA
"3","MTD3248","Sphagnum warnstorfii",1.07171209317589,47.0911176325054,"68.633333","-149.366667",NA
"4","MTD3283","Agave deserti",0.547234224484874,24.1494697152154,"33.633333","-116.4",NA
"5","MTD3284","Agave deserti",0.57358135004051,24.9700896062979,"33.633333","-116.4",NA
"6","MTD3285","Agave deserti",0.426173344549634,20.6330748401386,"33.633333","-116.4",NA
"7","MTD3286","Agave deserti",0.400611737465827,19.6331596890162,"33.633333","-116.4",NA
"8","MTD3287","Agave deserti",0.449143970093755,21.4918338467283,"33.633333","-116.4",NA
"9","MTD3288","Agave deserti",0.451925259428028,21.6428573859727,"33.633333","-116.4",NA
"10","MTD3289","Agave deserti",0.523776497768539,25.3059547584935,"33.633333","-116.4",NA
"11","MTD3290","Agave deserti",0.540584823628854,25.9594271448251,"33.633333","-116.4",NA
"12","MTD3301","Acer saccharum",0.936807882912001,41.8870467138567,"43.892848","-71.675912",NA
"13","MTD3302","Acer saccharum",0.605847271652583,28.070504862979,"43.892848","-71.675912",NA
"14","MTD3303","Acer saccharum",0.354830821839364,14.4940887915729,"43.892848","-71.675912",NA
"15","MTD3304","Acer saccharum",0.658327813689081,30.3088264578027,"43.892848","-71.675912",NA
"16","MTD3305","Acer saccharum",0.641740125399892,29.6819056480796,"43.892848","-71.675912",NA
"17","MTD3306","Acer saccharum",0.663067639098937,31.0407267842086,"43.979587","-71.796439",NA
"18","MTD3307","Acer saccharum",0.61425375403773,28.4967177085162,"43.979587","-71.796439",NA
"19","MTD3308","Acer saccharum",0.610728885273496,28.3854524383808,"43.979587","-71.796439",NA
"20","MTD3309","Acer saccharum",0.682535809303463,31.4578350702168,"43.979587","-71.796439",NA
"21","MTD3310","Acer saccharum",0.948467876346286,42.0436120001275,"43.979587","-71.796439",NA
"22","MTD3344","Triticum aestivum",0.618215510578805,30.0432990280596,"51.969187","5.665395",NA
"23","MTD3345","Lolium perenne",0.362387029047575,19.2978297098691,"51.969187","5.665395",NA
"24","MTD3346","Zea mays",0.859450147431056,39.4735420305587,"51.969187","5.665395",NA
"25","MTD3347","Hakea preissii",0.72714013078665,31.0295897730824,"-27.586111","117.5",NA
"26","MTD3348","Eremophila miniata",0.910507940597657,38.5828710368759,"-27.586111","117.5",NA
"27","MTD3355","Arthrocnemum bidens",0.248209917511012,13.2822524754163,"-27.586111","117.5",NA
"28","MTD3569","Ferocactus acanthodes",0.615937859734595,27.2713503338417,"33.633333","-116.4",NA
"29","MTD3570","Ferocactus acanthodes",0.634077110010433,28.0936067569281,"33.633333","-116.4",NA
"30","MTD3571","Ferocactus acanthodes",0.621918562864069,28.5135053505319,"33.633333","-116.4",NA
"31","MTD3572","Ferocactus acanthodes",0.538711733878231,25.2447097882755,"33.633333","-116.4",NA
"32","MTD3573","Opuntia ficus-indica",0.601999662723437,27.2619289694513,"34.116667","-117.5",NA
"33","MTD3574","Opuntia ficus-indica",0.668616963176901,29.9372253218968,"34.116667","-117.5",NA
"34","MTD3575","Opuntia ficus-indica",0.846080682657313,38.3181762920596,"34.116667","-117.5",NA
"35","MTD3576","Opuntia ficus-indica",0.531269462197539,25.490946032076,"34.116667","-117.5",NA
"36","MTD3577","Plantago lanceolata",0.442658437869809,23.4896714036408,"52.613969","0.886402",NA
"37","MTD3578","Plantago lanceolata",0.569527660992424,29.3050689263143,"52.613969","0.886402",NA
"38","MTD3580","Plantago euryphylla",0.414827754406453,22.8055648739999,"-36.5","148.266667",NA
"39","MTD3581","Plantago lanceolata",0.698523292305682,34.1797993758174,"52.613969","0.886402",NA
"40","MTD3582","Plantago euryphylla",0.385256345829408,21.4678584240858,"-36.5","148.266667",NA
"41","MTD3583","Plantago lanceolata",0.364496532670784,20.7172790077497,"52.613969","0.886402",NA
"42","MTD3584","Plantago lanceolata",0.846639057374057,40.5058533164764,"52.613969","0.886402",NA
"43","MTD3585","Plantago lanceolata",0.294792063290654,17.9295126195077,"52.613969","0.886402",NA
"44","MTD3586","Plantago lanceolata",0.368314650254719,20.3609723629171,"52.613969","0.886402",NA
"45","MTD3587","Plantago lanceolata",0.954432437426151,45.1664279649497,"52.613969","0.886402",NA
"46","MTD3588","Plantago lanceolata",0.845640353726491,40.3273650043235,"52.613969","0.886402",NA
"47","MTD3589","Plantago lanceolata",1.27541390138762,58.0709818541561,"52.613969","0.886402",NA
"48","MTD3605","Acer rubrum",0.702915030781517,32.4102752937346,"35.759573","-79.0193",NA
"49","MTD3608","Quercus alba",0.325485028864985,12.8151238796355,"35.759573","-79.0193",NA
"50","MTD3611","Liriodendron tulipifera",0.738746033060539,33.5105716181814,"35.759573","-79.0193",NA
"51","MTD3628","Betula pubescens",0.937539919691184,43.0910206702808,"59.663611","10.790833",NA
"52","MTD3629","Betula pubescens",1.1494304775035,52.3110193191853,"59.663611","10.790833",NA
"53","MTD3640","Vitis labruscana",0.503620036990069,25.2872901048168,"40.798213","-77.859908",NA
"54","MTD3641","Vitis labruscana",0.634460778488047,30.6374370097431,"40.798213","-77.859908",NA
"55","MTD3642","Citrus aurantium",0.545002663832237,25.8733198884353,"40.798213","-77.859908",NA
"56","MTD3643","Citrus aurantium",0.466517845077118,22.7952664225098,"40.798213","-77.859908",NA
"57","MTD3644","Citrus aurantium",0.668560280908456,31.2127842852988,"40.798213","-77.859908",NA
"58","MTD3645","Cassiope tetragona",0.813308177809787,34.0402528640923,"68.5","-33",NA
"59","MTD3647","Antennaria alpina",0.92457909423899,38.8512415934227,"68.5","-33",NA
"60","MTD3648","Diapensia lapponica",0.934296026337658,39.5376751506091,"68.5","-33",NA
"61","MTD3649","Viscaria alpina",0.710448197965578,30.7544473921515,"68.5","-33",NA
"62","MTD3650","Saxifraga oppositifolia",0.760524253659559,31.2853225538177,"68.5","-33",NA
"63","MTD3651","Empetrum nigrum",0.797563636099638,33.0002144030166,"53.349805","-6.26031",NA
"64","MTD3652","Saxifraga oppositifolia",0.851177248842752,35.1888621696011,"53.349805","-6.26031",NA
"65","MTD3653","Hordeum vulgare",0.570357831423575,25.5801786026122,"38.909435","-77.036035",NA
"66","MTD3654","Zea mays",0.824811744885015,36.3750145209158,"38.909435","-77.036035",NA
"67","MTD3671","Acer saccharum",0.876477634681686,39.7920303351942,"46.537222","-87.395194",NA
"68","MTD3673","Acer saccharum",0.495739561396916,23.7721054898179,"46.537222","-87.395194",NA
"69","MTD3674","Pinus resinosa",1.03235632069256,45.6890051567792,"46.537222","-87.395194",NA
"70","MTD3676","Pinus resinosa",1.02440712325221,44.4704672991011,"46.537222","-87.395194",NA
"71","MTD3690","Dracunculus vulgaris",1.43869117095272,63.1319845039928,"-34.928621","138.599959",NA
"72","MTD3691","Dracunculus vulgaris",0.00187149011394515,5.64545102648482,"-34.928621","138.599959",NA
"73","MTD3968","Ledum groenlandicum",0.568335115271408,26.8221792476537,"44.267","71.3",NA
"74","MTD3969","Ledum groenlandicum",0.571505041381362,26.7190661802263,"44.267","71.3",NA
"75","MTD3970","Ledum groenlandicum",0.421091255061756,20.8708170277333,"44.267","71.3",NA
"76","MTD3971","Ledum groenlandicum",0.529868174530136,25.5589896196469,"65.567","145.083",NA
"77","MTD3972","Ledum groenlandicum",0.452136163570991,22.1314095524356,"65.567","145.083",NA
"78","MTD3973","Ledum groenlandicum",0.519425182388185,24.9917106151317,"65.567","145.083",NA
"79","MTD3974","Ledum groenlandicum",0.531621112151538,25.4421419260821,"47.233","95.183",NA
"80","MTD3975","Ledum groenlandicum",0.528243645940015,25.3622272045799,"47.233","95.183",NA
"81","MTD3977","Ledum groenlandicum",0.547386870095277,26.2450676528621,"48.7","122.383",NA
"82","MTD3978","Ledum groenlandicum",0.55154958119135,26.198529648998,"48.7","122.383",NA
"83","MTD3979","Ledum groenlandicum",0.3909856245476,20.0276951385548,"48.7","122.383",NA
"84","MTD4151","Pinus banksiana",0.335932389695963,13.6087551129175,"55.12","-101.15",NA
"85","MTD4153","Pinus banksiana",0.878567185971977,38.9222542899109,"55.12","-101.15",NA
"86","MTD4154","Pinus banksiana",0.40704802023131,19.0454865973022,"55.12","-101.15",NA
"87","MTD4156","Pinus banksiana",0.314232375890839,12.121176387012,"54.2","-104.92",NA
"88","MTD4157","Pinus banksiana",0.754622271165069,34.1813450582126,"54.2","-104.92",NA
"89","MTD4158","Pinus banksiana",0.617102283256244,28.2458282370435,"54.2","-104.92",NA
"90","MTD4160","Pinus banksiana",0.601925188067626,27.9937126081671,"53.12","-106.07",NA
"91","MTD4163","Pinus banksiana",0.644559317135609,29.5249922129866,"55.23","-111.02",NA
"92","MTD4165","Pinus banksiana",1.09730001436887,47.8072342367157,"55.23","-111.02",NA
"93","MTD4168","Pinus banksiana",0.666759859739169,30.9646772142269,"45.78","-77.38",NA
"94","MTD4172","Pinus banksiana",0.648076265577359,30.0439402557152,"46","-86.5",NA
"95","MTD4173","Pinus banksiana",1.1538047045132,49.9376612178063,"46","-86.5",NA
"96","MTD4175","Pinus banksiana",0.558108314366293,26.1130841405558,"44.55","-85.37",NA
"97","MTD4177","Pinus banksiana",0.95378523236377,41.8794000352699,"44.55","-85.37",NA
"98","MTD4180","Pinus banksiana",0.682444730434779,31.4616350713861,"44.83","-89.67",NA
"99","MTD4181","Pinus banksiana",1.09320429866462,47.5746920766379,"44.83","-89.67",NA
